Make Website with Rmarkdown
…
# Median annual escapement by species
median_esc <- ADFG_firstattempt_reformatted %>% 
  separate(sampleDate, c("Year", "Month", "Day"), sep = "-") %>% 
  group_by(Species, Year, Location) %>% 
  summarize(escapement = sum(DailyCount))
median_esc <- median_esc %>% 
  group_by(Species) %>% 
  summarize(median_escapement = median(escapement))

## Warning: package 'bindrcpp' was built under R version 3.3.2

median_esc

## # A tibble: 21 x 2
##                    Species median_escapement
##                     <fctr>             <dbl>
##  1 Anadromous dolly varden               0.0
##  2                 Chinook             541.0
##  3                    Chum             153.0
##  4             Chum - Fall          430233.0
##  5           Chum - Summer          642529.0
##  6                    Coho            1978.0
##  7 General cutthroat trout             108.5
##  8    General dolly varden             155.5
##  9        Late Run Sockeye          224612.0
## 10                   Mixed         1021558.0
## # ... with 11 more rows
…
